<svg xmlns="http://www.w3.org/2000/svg" viewBox="0 0 181.33 173.21" id="byo_intro_constellation_11">
    <defs>
        <style>.poi-1{fill:none;stroke:#fff;stroke-miterlimit:10;stroke-width:0.5px;}.poi-2{fill:#fff;}</style>
    </defs>
    <title>Fichier 7</title>
    <g id="Calque_2" data-name="Calque 2">
        <g id="Calque_1-2" data-name="Calque 1">
            <polyline id="_Tracé_" data-name="&lt;Tracé&gt;" class="poi-1"
                      points="89.1 32.26 94.75 52.17 128.61 108.53 137.39 122.29 167.5 152.73 180.04 165.61 144.92 165.61 102.34 157.41 53.35 152.38 18.23 172.44 0.67 152.36"/>
            <polygon id="_Tracé_2" data-name="&lt;Tracé&gt;" class="poi-1"
                     points="89.01 32.61 77.64 25.03 77.64 14 77.64 2.96 88.17 1.12 102.89 1.12 113.48 7.69 113.48 17.15 105.22 25.03 89.01 32.61"/>
            <polygon id="_Tracé_3" data-name="&lt;Tracé&gt;" class="poi-2"
                     points="112.72 9.04 111.82 7.57 112.56 6.01 114.2 5.92 115.1 7.39 114.36 8.95 112.72 9.04"/>
            <polygon id="_Tracé_4" data-name="&lt;Tracé&gt;" class="poi-2"
                     points="112.64 18.21 112 17.17 112.52 16.06 113.69 16 114.33 17.04 113.8 18.15 112.64 18.21"/>
            <polygon id="_Tracé_5" data-name="&lt;Tracé&gt;" class="poi-2"
                     points="178.23 166.99 177.05 165.07 178.01 163.04 180.15 162.92 181.33 164.84 180.37 166.87 178.23 166.99"/>
            <polygon id="_Tracé_6" data-name="&lt;Tracé&gt;" class="poi-2"
                     points="100.92 158.96 100.08 157.59 100.77 156.13 102.3 156.05 103.14 157.42 102.45 158.88 100.92 158.96"/>
            <polygon id="_Tracé_7" data-name="&lt;Tracé&gt;" class="poi-2"
                     points="102.64 2.21 102 1.17 102.52 0.06 103.69 0 104.33 1.04 103.8 2.15 102.64 2.21"/>
            <polygon id="_Tracé_8" data-name="&lt;Tracé&gt;" class="poi-2"
                     points="104.64 26.21 104 25.17 104.52 24.06 105.69 24 106.33 25.04 105.8 26.15 104.64 26.21"/>
            <polygon id="_Tracé_9" data-name="&lt;Tracé&gt;" class="poi-2"
                     points="137.29 123.7 136.53 122.46 137.15 121.14 138.54 121.06 139.31 122.3 138.68 123.63 137.29 123.7"/>
            <polygon id="_Tracé_10" data-name="&lt;Tracé&gt;" class="poi-2"
                     points="87.04 1.94 86.5 1.07 86.94 0.15 87.91 0.09 88.45 0.96 88.01 1.89 87.04 1.94"/>
            <polygon id="_Tracé_11" data-name="&lt;Tracé&gt;" class="poi-2"
                     points="52.9 153.91 52.07 152.56 52.75 151.13 54.26 151.05 55.09 152.4 54.41 153.83 52.9 153.91"/>
            <polygon id="_Tracé_12" data-name="&lt;Tracé&gt;" class="poi-2"
                     points="17.64 173.21 17 172.17 17.52 171.06 18.68 171 19.32 172.04 18.8 173.15 17.64 173.21"/>
            <polygon id="_Tracé_13" data-name="&lt;Tracé&gt;" class="poi-2"
                     points="0.64 154.21 0 153.17 0.52 152.06 1.69 152 2.33 153.04 1.8 154.15 0.64 154.21"/>
            <polygon id="_Tracé_14" data-name="&lt;Tracé&gt;" class="poi-2"
                     points="144.4 166.58 143.97 165.12 144.96 163.96 146.38 164.27 146.81 165.73 145.82 166.89 144.4 166.58"/>
            <polygon id="_Tracé_15" data-name="&lt;Tracé&gt;" class="poi-2"
                     points="94.64 53.21 94 52.17 94.52 51.06 95.69 51 96.33 52.04 95.8 53.15 94.64 53.21"/>
            <polygon id="_Tracé_16" data-name="&lt;Tracé&gt;" class="poi-2"
                     points="77.64 26.21 77 25.17 77.52 24.06 78.69 24 79.33 25.04 78.8 26.15 77.64 26.21"/>
            <polygon id="_Tracé_17" data-name="&lt;Tracé&gt;" class="poi-2"
                     points="88.39 33.16 87.61 31.89 88.25 30.55 89.66 30.47 90.44 31.74 89.8 33.08 88.39 33.16"/>
            <polygon id="_Tracé_18" data-name="&lt;Tracé&gt;" class="poi-2"
                     points="77.66 4.26 77 3.2 77.54 2.06 78.73 2 79.39 3.06 78.85 4.2 77.66 4.26"/>
        </g>
    </g>
</svg>